Análisis exploratorio de la producción de hidrocarburos en Chubut
…
Análisis exploratorio del dataset de Chubut a marzo de 2024

Lectura de la base de datos con library(readr)

## Rows: 7971 Columns: 18
## ── Column specification ────────────────────────────────────────────────────────
## Delimiter: ","
## chr  (5): YACIMIENTO_SEN, FORMACION, NOMBRE_CORTO, NOM_DE_ESTADO_TOW, NOMBRE...
## dbl (13): YAC_SEN, Petroleo_Diario_m3, Petroleo_Mensual_m3, Petroleo_Acumula...
## 
## ℹ Use `spec()` to retrieve the full column specification for this data.
## ℹ Specify the column types or set `show_col_types = FALSE` to quiet this message.

## # A tibble: 864 × 18
##    YACIMIENTO_SEN               YAC_SEN FORMACION NOMBRE_CORTO NOM_DE_ESTADO_TOW
##    <chr>                          <dbl> <chr>     <chr>        <chr>            
##  1 BELLA_VISTA                        1 GRUPO_CH… BVd_553      Produciendo      
##  2 BELLA_VISTA                        1 GRUPO_CH… BV_469       Produciendo      
##  3 BELLA_VISTA                        1 GRUPO_CH… BV_526(d)(I) Produciendo      
##  4 BELLA_VISTA                        1 GRUPO_CH… BV_576(d)    Produciendo      
##  5 BELLA_VISTA                        1 GRUPO_CH… BV_577(d)    Produciendo      
##  6 BELLA_VISTA                        1 GRUPO_CH… BV_578(d)    Produciendo      
##  7 CAMPAMENTO_CENTRAL_BELLA_VI…       2 GRUPO_CH… BVd_540      Produciendo      
##  8 CAMPAMENTO_CENTRAL_BELLA_VI…       2 GRUPO_CH… BVd_544      Produciendo      
##  9 CAMPAMENTO_CENTRAL_BELLA_VI…       2 GRUPO_CH… BVd_556      Produciendo      
## 10 CAMPAMENTO_CENTRAL_BELLA_VI…       2 GRUPO_CH… BVd_557      Produciendo      
## # ℹ 854 more rows
## # ℹ 13 more variables: NOMBRE_DE_ESTADO_TOW <chr>, Petroleo_Diario_m3 <dbl>,
## #   Petroleo_Mensual_m3 <dbl>, Petroleo_Acumulado_m3 <dbl>,
## #   Gas_Diario_m3 <dbl>, Gas_Mensual_m3 <dbl>, Gas_Acumulado_m3 <dbl>,
## #   Agua_diaria_m3 <dbl>, Agua_Mensual__m3 <dbl>, Agua_Acumulada__m3 <dbl>,
## #   TEF_de_Produccion_dias <dbl>, TEF_de_Produccion_Acum <dbl>, GOR <dbl>
…
Función sort

Esta función fue útil para ordenar los volúmenes de pozos de petróleo
mensual de menor a mayor

## # A tibble: 864 × 18
##    YACIMIENTO_SEN               YAC_SEN FORMACION NOMBRE_CORTO NOM_DE_ESTADO_TOW
##    <chr>                          <dbl> <chr>     <chr>        <chr>            
##  1 BELLA_VISTA                        1 GRUPO_CH… BVd_553      Produciendo      
##  2 BELLA_VISTA                        1 GRUPO_CH… BV_469       Produciendo      
##  3 BELLA_VISTA                        1 GRUPO_CH… BV_526(d)(I) Produciendo      
##  4 BELLA_VISTA                        1 GRUPO_CH… BV_576(d)    Produciendo      
##  5 BELLA_VISTA                        1 GRUPO_CH… BV_577(d)    Produciendo      
##  6 BELLA_VISTA                        1 GRUPO_CH… BV_578(d)    Produciendo      
##  7 CAMPAMENTO_CENTRAL_BELLA_VI…       2 GRUPO_CH… BVd_540      Produciendo      
##  8 CAMPAMENTO_CENTRAL_BELLA_VI…       2 GRUPO_CH… BVd_544      Produciendo      
##  9 CAMPAMENTO_CENTRAL_BELLA_VI…       2 GRUPO_CH… BVd_556      Produciendo      
## 10 CAMPAMENTO_CENTRAL_BELLA_VI…       2 GRUPO_CH… BVd_557      Produciendo      
## # ℹ 854 more rows
## # ℹ 13 more variables: NOMBRE_DE_ESTADO_TOW <chr>, Petroleo_Diario_m3 <dbl>,
## #   Petroleo_Mensual_m3 <dbl>, Petroleo_Acumulado_m3 <dbl>,
## #   Gas_Diario_m3 <dbl>, Gas_Mensual_m3 <dbl>, Gas_Acumulado_m3 <dbl>,
## #   Agua_diaria_m3 <dbl>, Agua_Mensual__m3 <dbl>, Agua_Acumulada__m3 <dbl>,
## #   TEF_de_Produccion_dias <dbl>, TEF_de_Produccion_Acum <dbl>, GOR <dbl>
…
